TakeHome 4
…
Rows: 303 Columns: 14
── Column specification ────────────────────────────────────────────────────────
Delimiter: ","
dbl (14): age, sex, cp, trestbps, chol, fbs, restecg, thalach, exang, oldpea...

ℹ Use `spec()` to retrieve the full column specification for this data.
ℹ Specify the column types or set `show_col_types = FALSE` to quiet this message.

heart_df

# A tibble: 303 × 14
     age   sex    cp trestbps  chol   fbs restecg thalach exang oldpeak slope
   <dbl> <dbl> <dbl>    <dbl> <dbl> <dbl>   <dbl>   <dbl> <dbl>   <dbl> <dbl>
 1    63     1     3      145   233     1       0     150     0     2.3     0
 2    37     1     2      130   250     0       1     187     0     3.5     0
 3    41     0     1      130   204     0       0     172     0     1.4     2
 4    56     1     1      120   236     0       1     178     0     0.8     2
 5    57     0     0      120   354     0       1     163     1     0.6     2
 6    57     1     0      140   192     0       1     148     0     0.4     1
 7    56     0     1      140   294     0       0     153     0     1.3     1
 8    44     1     1      120   263     0       1     173     0     0       2
 9    52     1     2      172   199     1       1     162     0     0.5     2
10    57     1     2      150   168     0       1     174     0     1.6     2
# ℹ 293 more rows
# ℹ 3 more variables: ca <dbl>, thal <dbl>, target <dbl>
…
Attaching package: 'modelr'

The following object is masked from 'package:broom':

    bootstrap

grid <-heart_df %>% data_grid(
  sex = c(1, 0),
  age = seq_range(heart_df$age, n = 5),
  chol = seq_range(heart_df$chol, n = 5)
)
aug_heart <- augment(mod1, newdata = grid, se_fit = TRUE, interval = "prediction")
aug_heart

# A tibble: 50 × 5
     sex   age  chol .fitted .se.fit
   <dbl> <dbl> <dbl>   <dbl>   <dbl>
 1     0    29  126  -0.225   0.107 
 2     0    29  236. -0.121   0.0915
 3     0    29  345  -0.0165  0.110 
 4     0    29  454.  0.0877  0.150 
 5     0    29  564   0.192   0.200 
 6     0    41  126  -0.0691  0.0900
 7     0    41  236.  0.0351  0.0641
 8     0    41  345   0.139   0.0832
 9     0    41  454.  0.243   0.129 
10     0    41  564   0.348   0.182 
# ℹ 40 more rows
…
