…
```{r}
## install.packages("palmerpenguins")
library(palmerpenguins)
library(tidyverse)
theme_set(theme_minimal())
penguins
#> # A tibble: 344 × 8
#>   species island   bill_length_mm bill_depth_mm flipper_length_mm body_mass_g
#>   <fct>   <fct>             <dbl>         <dbl>             <int>       <int>
#> 1 Adelie  Torgers…           39.1          18.7               181        3750
#> 2 Adelie  Torgers…           39.5          17.4               186        3800
#> 3 Adelie  Torgers…           40.3          18                 195        3250
#> 4 Adelie  Torgers…           NA            NA                  NA          NA
#> 5 Adelie  Torgers…           36.7          19.3               193        3450
#> 6 Adelie  Torgers…           39.3          20.6               190        3650
#> # ℹ 338 more rows
#> # ℹ 2 more variables: sex <fct>, year <int>
```
…
