Class Prep 9
…
# A tibble: 6 × 4
    age .fitted .lower .upper
  <dbl>   <dbl>  <dbl>  <dbl>
1  29      4.29   4.12   4.47
2  37.8    4.24   4.16   4.31
3  46.6    4.18   4.12   4.25
4  55.4    4.13   4.07   4.20
5  64.2    4.08   3.97   4.20
6  73      4.03   3.76   4.30

plot_df <- bind_rows(lst(aug_age, aug_agesq), .id = "model")
plot_df

# A tibble: 22 × 5
   model     age .fitted .lower .upper
   <chr>   <dbl>   <dbl>  <dbl>  <dbl>
 1 aug_age  29      4.29   4.18   4.40
 2 aug_age  31.9    4.27   4.18   4.37
 3 aug_age  34.9    4.25   4.17   4.34
 4 aug_age  37.8    4.24   4.16   4.31
 5 aug_age  40.7    4.22   4.16   4.28
 6 aug_age  43.7    4.20   4.15   4.26
 7 aug_age  46.6    4.19   4.13   4.24
 8 aug_age  49.5    4.17   4.12   4.22
 9 aug_age  52.5    4.15   4.10   4.20
10 aug_age  55.4    4.13   4.07   4.19
# ℹ 12 more rows
…
