Class Prep 5
…
Rows: 151 Columns: 11
── Column specification ────────────────────────────────────────────────────────
Delimiter: ","
chr (3): Country, GovernanceRank, Region
dbl (8): HPIRank, LifeExpectancy, Wellbeing, HappyLifeYears, Footprint, Happ...

ℹ Use `spec()` to retrieve the full column specification for this data.
ℹ Specify the column types or set `show_col_types = FALSE` to quiet this message.

hpi_df %>%
  mutate(WellB_FootP = Wellbeing/Footprint) %>%
  relocate(WellB_FootP, Wellbeing, Footprint)

# A tibble: 151 × 12
   WellB_FootP Wellbeing Footprint HPIRank Country LifeExpectancy HappyLifeYears
         <dbl>     <dbl>     <dbl>   <dbl> <chr>            <dbl>          <dbl>
 1       8.81       4.76     0.540     109 Afghan…           48.7           29.0
 2       2.91       5.27     1.81       18 Albania           76.9           48.8
 3       3.18       5.24     1.65       26 Algeria           73.1           46.2
 4       4.72       4.21     0.891     127 Angola            51.1           28.2
 5       2.38       6.44     2.71       17 Argent…           75.9           55.0
 6       2.52       4.37     1.73       53 Armenia           74.2           41.9
 7       1.11       7.41     6.68       76 Austra…           81.9           65.5
 8       1.39       7.35     5.29       48 Austria           80.9           64.3
 9       2.14       4.22     1.97       80 Azerba…           70.7           39.1
10       0.685      4.55     6.65      146 Bahrain           75.1           43.5
# ℹ 141 more rows
# ℹ 5 more variables: HappyPlanetIndex <dbl>, Population <dbl>,
#   GDPcapita <dbl>, GovernanceRank <chr>, Region <chr>

Exercise 3:

Review mutate() and case_when(). Create a new variable in hpi_df that is equal to “80s” if LifeExp is in the 80’s, “70s” if LifeExp is in the 70s, and “Below 70” if LifeExp is less than 70.

hpi_df %>%
  mutate(AgeRange = case_when(
    LifeExpectancy >= 80 ~ "80s",
    LifeExpectancy >= 70 ~ "70s",
    LifeExpectancy < 70 ~ "Below 70")) %>%
  relocate(AgeRange, LifeExpectancy)

# A tibble: 151 × 12
   AgeRange LifeExpectancy HPIRank Country    Wellbeing HappyLifeYears Footprint
   <chr>             <dbl>   <dbl> <chr>          <dbl>          <dbl>     <dbl>
 1 Below 70           48.7     109 Afghanist…      4.76           29.0     0.540
 2 70s                76.9      18 Albania         5.27           48.8     1.81 
 3 70s                73.1      26 Algeria         5.24           46.2     1.65 
 4 Below 70           51.1     127 Angola          4.21           28.2     0.891
 5 70s                75.9      17 Argentina       6.44           55.0     2.71 
 6 70s                74.2      53 Armenia         4.37           41.9     1.73 
 7 80s                81.9      76 Australia       7.41           65.5     6.68 
 8 80s                80.9      48 Austria         7.35           64.3     5.29 
 9 70s                70.7      80 Azerbaijan      4.22           39.1     1.97 
10 70s                75.1     146 Bahrain         4.55           43.5     6.65 
# ℹ 141 more rows
# ℹ 5 more variables: HappyPlanetIndex <dbl>, Population <dbl>,
#   GDPcapita <dbl>, GovernanceRank <chr>, Region <chr>

Exercise 4.

Review arrange(). Sort the hpi_df data so that the country with the highest LifeExp is in the first row and the country with the lowest LifeExp is in the last row.

hpi_df %>% arrange(-LifeExpectancy)

# A tibble: 151 × 11
   HPIRank Country     LifeExpectancy Wellbeing HappyLifeYears Footprint
     <dbl> <chr>                <dbl>     <dbl>          <dbl>     <dbl>
 1      45 Japan                 83.4      6.06           58.0      4.17
 2     102 Hong Kong             82.8      5.64           54.9      5.81
 3      34 Switzerland           82.3      7.52           66.5      5.01
 4      76 Australia             81.9      7.41           65.5      6.68
 5      51 Italy                 81.9      6.35           58.8      4.52
 6      88 Iceland               81.8      6.89           62.1      6.54
 7      15 Israel                81.6      7.36           64.9      3.96
 8      50 France                81.5      6.80           61.3      4.91
 9      62 Spain                 81.4      6.19           57.4      4.74
10      52 Sweden                81.4      7.50           65.6      5.71
# ℹ 141 more rows
# ℹ 5 more variables: HappyPlanetIndex <dbl>, Population <dbl>,
#   GDPcapita <dbl>, GovernanceRank <chr>, Region <chr>

Exercise 5.

Review select(). Make a data frame from hpi_df that only has the variables Country and LifeExp.

(Country_LifeExp_df <- hpi_df %>%  select(Country, LifeExpectancy)) 

# A tibble: 151 × 2
   Country     LifeExpectancy
   <chr>                <dbl>
 1 Afghanistan           48.7
 2 Albania               76.9
 3 Algeria               73.1
 4 Angola                51.1
 5 Argentina             75.9
 6 Armenia               74.2
 7 Australia             81.9
 8 Austria               80.9
 9 Azerbaijan            70.7
10 Bahrain               75.1
# ℹ 141 more rows
…
Transition States

Middle East and North Africa

Sub Saharan Africa

Latin America

Exercise 7.

Review filter(). Make a data frame from hpi_df that only has countries in the “Western World” Region.

(WestWrld_hpi <-hpi_df %>% filter(Region == "Western World"))

# A tibble: 24 × 11
   HPIRank Country   LifeExpectancy Wellbeing HappyLifeYears Footprint
     <dbl> <chr>              <dbl>     <dbl>          <dbl>     <dbl>
 1      76 Australia           81.9      7.41           65.5      6.68
 2      48 Austria             80.9      7.35           64.3      5.29
 3     107 Belgium             80        6.85           60.5      7.11
 4      65 Canada              81        7.65           66.3      6.43
 5      59 Cyprus              79.6      6.39           57.4      4.44
 6     110 Denmark             78.8      7.77           65.2      8.25
 7      70 Finland             80        7.39           63.9      6.21
 8      50 France              81.5      6.80           61.3      4.91
 9      46 Germany             80.4      6.72           60.0      4.57
10      83 Greece              79.9      5.84           54.2      4.92
# ℹ 14 more rows
# ℹ 5 more variables: HappyPlanetIndex <dbl>, Population <dbl>,
#   GDPcapita <dbl>, GovernanceRank <chr>, Region <chr>
…
