Class Prep 8
…
Section 8.1.2: glance()

glance(coffee_mod)

# A tibble: 1 × 12
  r.squared adj.r.squared sigma statistic p.value    df logLik   AIC   BIC
      <dbl>         <dbl> <dbl>     <dbl>   <dbl> <dbl>  <dbl> <dbl> <dbl>
1     0.889         0.889  1.17     2137.       0     5 -2105. 4224. 4260.
# ℹ 3 more variables: deviance <dbl>, df.residual <int>, nobs <int>

Section 8.1.3: augment()

augment(coffee_mod)

# A tibble: 1,339 × 12
   total_cup_points species aroma flavor sweetness moisture .fitted  .resid
              <dbl> <chr>   <dbl>  <dbl>     <dbl>    <dbl>   <dbl>   <dbl>
 1             90.6 Arabica  8.67   8.83     10        0.12    91.1 -0.537 
 2             89.9 Arabica  8.75   8.67     10        0.12    90.5 -0.538 
 3             89.8 Arabica  8.42   8.5      10        0       89.2  0.577 
 4             89   Arabica  8.17   8.58     10        0.11    88.9  0.114 
 5             88.8 Arabica  8.25   8.5      10        0.12    88.6  0.214 
 6             88.8 Arabica  8.58   8.42     10        0.11    88.9 -0.0411
 7             88.8 Arabica  8.42   8.5      10        0.11    89.0 -0.216 
 8             88.7 Arabica  8.25   8.33      9.33     0.03    86.4  2.25  
 9             88.4 Arabica  8.67   8.67      9.33     0.03    89.0 -0.550 
10             88.2 Arabica  8.08   8.58     10        0.1     88.7 -0.479 
# ℹ 1,329 more rows
# ℹ 4 more variables: .hat <dbl>, .sigma <dbl>, .cooksd <dbl>, .std.resid <dbl>
…
augment_df |> filter(.hat > 0.2)

# A tibble: 2 × 12
  total_cup_points species aroma flavor sweetness moisture .fitted .resid  .hat
             <dbl> <chr>   <dbl>  <dbl>     <dbl>    <dbl>   <dbl>  <dbl> <dbl>
1             59.8 Arabica   7.5   6.67      1.33     0.1    58.4    1.38 0.223
2              0   Arabica   0     0         0        0.12    6.81  -6.81 0.430
# ℹ 3 more variables: .sigma <dbl>, .cooksd <dbl>, .std.resid <dbl>

augment_df |> filter(.std.resid > 3 | .std.resid < -3)

# A tibble: 25 × 12
   total_cup_points species aroma flavor sweetness moisture .fitted .resid
              <dbl> <chr>   <dbl>  <dbl>     <dbl>    <dbl>   <dbl>  <dbl>
 1             82.8 Arabica  8.08   8.17     10        0.12    86.6  -3.85
 2             82.4 Arabica  5.08   7.75     10        0.11    78.6   3.79
 3             82.3 Arabica  7.75   8.08      6.67     0.11    78.1   4.27
 4             80.7 Arabica  7.67   7.5       6.67     0       75.2   5.51
 5             80   Arabica  7.58   7.75     10        0       83.7  -3.71
 6             79.9 Arabica  7.83   7.67     10        0       83.8  -3.87
 7             79.2 Arabica  7.17   7.42      6.67     0.1     73.6   5.58
 8             78.6 Arabica  7.92   7.58     10        0.1     83.3  -4.74
 9             78.3 Arabica  7.17   6.08     10        0.11    74.2   4.13
10             77.6 Arabica  7.58   7.67      6        0.12    74.1   3.46
# ℹ 15 more rows
# ℹ 4 more variables: .hat <dbl>, .sigma <dbl>, .cooksd <dbl>, .std.resid <dbl>
…
Exercises

Exercise 1.

Examine the penguins data set in the palmerpenguins package:

library(palmerpenguins)
penguins

# A tibble: 344 × 8
   species island    bill_length_mm bill_depth_mm flipper_length_mm body_mass_g
   <fct>   <fct>              <dbl>         <dbl>             <int>       <int>
 1 Adelie  Torgersen           39.1          18.7               181        3750
 2 Adelie  Torgersen           39.5          17.4               186        3800
 3 Adelie  Torgersen           40.3          18                 195        3250
 4 Adelie  Torgersen           NA            NA                  NA          NA
 5 Adelie  Torgersen           36.7          19.3               193        3450
 6 Adelie  Torgersen           39.3          20.6               190        3650
 7 Adelie  Torgersen           38.9          17.8               181        3625
 8 Adelie  Torgersen           39.2          19.6               195        4675
 9 Adelie  Torgersen           34.1          18.1               193        3475
10 Adelie  Torgersen           42            20.2               190        4250
# ℹ 334 more rows
# ℹ 2 more variables: sex <fct>, year <int>
…
